[1] seqmat:
Mat Object: 1 MPI processes
  type: seqbaij
row 0: (0, 2.)  (1, -1.) 
row 1: (0, -1.)  (1, 2.)  (2, -1.) 
row 2: (1, -1.)  (2, 2.)  (3, -1.) 
row 3: (2, -1.)  (3, 2.)  (4, -1.) 
row 4: (3, -1.)  (4, 2.) 
row 5:
Mat Object: 3 MPI processes
  type: mpibaij
row 0: (0, 2.)  (1, -1.) 
row 1: (0, -1.)  (1, 2.)  (2, -1.) 
row 2: (1, -1.)  (2, 2.)  (3, -1.) 
row 3: (2, -1.)  (3, 2.)  (4, -1.) 
row 4: (3, -1.)  (4, 2.) 
row 5: (0, 2.)  (1, -1.) 
row 6: (0, -1.)  (1, 2.)  (2, -1.) 
row 7: (1, -1.)  (2, 2.)  (3, -1.) 
row 8: (2, -1.)  (3, 2.)  (4, -1.) 
row 9: (3, -1.)  (4, 2.) 
row 10:
row 11: (0, 2.)  (1, -1.) 
row 12: (0, -1.)  (1, 2.)  (2, -1.) 
row 13: (1, -1.)  (2, 2.)  (3, -1.) 
row 14: (2, -1.)  (3, 2.)  (4, -1.) 
row 15: (3, -1.)  (4, 2.) 
row 16:
row 17:
